{
    "KPlugin": {
        "BugReportUrl": "https://bugs.kde.org/enter_bug.cgi?product=systemsettings&component=kcm_spellchecking",
        "Description": "Spell Checker Dictionaries and Options",
        "Description[ar]": "قواميس وخيارات تدقيق الهجاء",
        "Description[az]": "Orfoqrafiya yoxlayıcı Lüğətləri və Seçimləri",
        "Description[be]": "Слоўнікі і параметры правярання правапісу",
        "Description[bg]": "Речници и настройки за правописна проверка",
        "Description[ca@valencia]": "Diccionaris i opcions del corrector ortogràfic",
        "Description[ca]": "Diccionaris i opcions del corrector ortogràfic",
        "Description[cs]": "Slovníky a možnosti kontroly pravopisu",
        "Description[da]": "Stavekontrol, ordbøger og indstillinger",
        "Description[de]": "Wörterbücher und Einstellungen zur Rechtschreibprüfung",
        "Description[el]": "Λεξικά και επιλογές ορθογραφικού ελέγχου",
        "Description[en_GB]": "Spell Checker Dictionaries and Options",
        "Description[eo]": "Literumilaj Vortaroj kaj Opcioj",
        "Description[es]": "Diccionarios y opciones del corrector ortográfico",
        "Description[et]": "Õigekirja kontrollimise sõnaraamatud ja valikud",
        "Description[eu]": "Ortografia zuzenketarako hiztegiak eta aukerak",
        "Description[fi]": "Oikeinkirjoituksen tarkistuksen sanastot ja asetukset",
        "Description[fr]": "Dictionnaire et options pour la vérification orthographique",
        "Description[gl]": "Opcións e dicionarios do corrector ortográfico.",
        "Description[he]": "מילונים ואפשרויות של בדיקת איות",
        "Description[hu]": "Helyesírás-ellenőrző szótárai és beállításai",
        "Description[ia]": "Dictionarios e Optiones de Controlator Orthographic",
        "Description[id]": "Opsi dan Kamus Pemeriksa Ejaan",
        "Description[ie]": "Dictionariums e parametres ortografic",
        "Description[is]": "Stafsetningarorðasöfn og valkostir þeirra",
        "Description[it]": "Dizionari e opzioni del controllo ortografico",
        "Description[ja]": "スペルチェッカーの辞書とオプション",
        "Description[ka]": "მართლწერის შესამოწმებელი ლექსიკონები და პარამეტრები",
        "Description[ko]": "맞춤법 검사 사전과 옵션",
        "Description[lt]": "Rašybos tikrinimo žodynai ir parinktys",
        "Description[lv]": "Pareizrakstības pārbaudes vārdnīcas un iespējas",
        "Description[nl]": "Woordenboeken voor spellingcontrole en opties",
        "Description[nn]": "Ordlister og innstillingar for stavekontroll",
        "Description[pa]": "ਸ਼ਬਦ-ਜੋੜ ਸ਼ਬਦਕੋਸ਼ ਅਤੇ ਚੋਣਾਂ",
        "Description[pl]": "Sprawdzanie pisowni - słowniki i opcje",
        "Description[pt]": "Dicionários e Definições Ortográficas",
        "Description[pt_BR]": "Dicionários e opções da verificação ortográfica",
        "Description[ro]": "Dicționare și opțiuni pentru verificator ortografic",
        "Description[ru]": "Настройка проверки орфографии",
        "Description[sk]": "Adresáre a voľby kontroly pravopisu",
        "Description[sl]": "Slovarji črkovalnika in možnosti",
        "Description[sv]": "Ordlistor och alternativ för stavningskontroll",
        "Description[ta]": "சொல் திருத்தி அகராதி மற்றும் விருப்பத்தேர்வுகள்",
        "Description[tr]": "Yazım Denetimi Sözlükleri ve Seçenekleri",
        "Description[uk]": "Словники і параметри перевірки правопису",
        "Description[vi]": "Các từ điển và các lựa chọn của trình kiểm tra đánh vần",
        "Description[x-test]": "xxSpell Checker Dictionaries and Optionsxx",
        "Description[zh_CN]": "拼写检查器的词典和选项",
        "Description[zh_TW]": "拼字檢查器字典與選項",
        "Icon": "tools-check-spelling",
        "Name": "Spell Check",
        "Name[ar]": "تدقيق الهجاء",
        "Name[az]": "Orfoqrafiya yoxlaması",
        "Name[be]": "Правяранне правапісу",
        "Name[bg]": "Проверка на правописа",
        "Name[bs]": "Provjera pravopisa",
        "Name[ca@valencia]": "Verificació de l'ortografia",
        "Name[ca]": "Verificació de l'ortografia",
        "Name[cs]": "Kontrola pravopisu",
        "Name[da]": "Stavekontrol",
        "Name[de]": "Rechtschreibprüfung",
        "Name[el]": "Έλεγχος ορθογραφίας",
        "Name[en_GB]": "Spell Check",
        "Name[eo]": "Literumkontrolo",
        "Name[es]": "Corrector ortográfico",
        "Name[et]": "Õigekirja kontroll",
        "Name[eu]": "Ortografia zuzenketa",
        "Name[fi]": "Oikeinkirjoituksen tarkistus",
        "Name[fr]": "Vérification orthographique",
        "Name[gl]": "Corrección ortográfica",
        "Name[he]": "בדיקת איות",
        "Name[hu]": "Helyesírás-ellenőrzés",
        "Name[ia]": "Controlo Orthographic",
        "Name[id]": "Periksa Ejaan",
        "Name[ie]": "Control de ortografie",
        "Name[is]": "Stafsetningarkönnun",
        "Name[it]": "Correttore ortografico",
        "Name[ja]": "スペルチェック",
        "Name[ka]": "მართლწერის შემოწმება",
        "Name[ko]": "맞춤법 검사",
        "Name[lt]": "Rašybos tikrinimas",
        "Name[lv]": "Pareizrakstības pārbaudītājs",
        "Name[ml]": "അക്ഷരത്തെറ്റു് പരിശോധക",
        "Name[mr]": "शब्द तपासक",
        "Name[nb]": "Stavekontroll",
        "Name[nds]": "Klookschriever",
        "Name[nl]": "Spellingcontrole",
        "Name[nn]": "Stave­kontroll",
        "Name[pa]": "ਸ਼ਬਦ-ਜੋੜ ਦੀ ਜਾਂਚ",
        "Name[pl]": "Sprawdzanie pisowni",
        "Name[pt]": "Verificação Ortográfica",
        "Name[pt_BR]": "Verificação ortográfica",
        "Name[ro]": "Verificare ortografică",
        "Name[ru]": "Проверка орфографии",
        "Name[sk]": "Kontrola pravopisu",
        "Name[sl]": "Preverjanje črkovanja",
        "Name[sr@ijekavian]": "Провера правописа",
        "Name[sr@ijekavianlatin]": "Provera pravopisa",
        "Name[sr@latin]": "Provera pravopisa",
        "Name[sr]": "Провера правописа",
        "Name[sv]": "Stavningskontroll",
        "Name[ta]": "சொல் திருத்தி",
        "Name[tg]": "Санҷиши имло",
        "Name[tr]": "Yazım Denetimi",
        "Name[uk]": "Перевірка правопису",
        "Name[vi]": "Kiểm tra đánh vần",
        "Name[x-test]": "xxSpell Checkxx",
        "Name[zh_CN]": "拼写检查",
        "Name[zh_TW]": "拼字檢查"
    },
    "X-DocPath": "kcontrol/spellchecking/index.html",
    "X-KDE-Keywords": "spell,spellings,grammar check,grammatical check,spell check,autocorrect,auto correct,words,phrases,wrong words,linguistics,semantic,alphabet,correction",
    "X-KDE-Keywords[ar]": "تهجئة,تهجئات,تدقيق نحوي,تدقيق نحوي,تدقيق إملائي,تصحيح تلقائي,تصحيح تلقائي,كلمات,عبارات,كلمات خاطئة,لغويات,دلالات,أبجدية,تصحيح",
    "X-KDE-Keywords[az]": "spell,spellings,grammar check,grammatical check,spell check,autocorrect,auto correct,words,phrases,wrong words,linguistics,semantic,alphabet,correction,nitq,danışmaq,imla yoxlaması,qrammatik yoxlama,avtodüzəliş,sözlər,ifadələr,səhv sözlər,dilçilik,semantik,əlifba,düzəltmə",
    "X-KDE-Keywords[bg]": "правопис, правопис, граматическа проверка, граматическа проверка, проверка на правописа, автокорекция, автоматична корекция, думи, фрази, грешни думи, лингвистика, семантика, азбука, корекция",
    "X-KDE-Keywords[ca@valencia]": "ortografia,verificació ortogràfica,verificació de gramàtica,verificació gramatical,verificació ortogràfica,correcció automàtica,paraules,frases,paraules incorrectes,lingüística,semàntica,alfabet,correcció",
    "X-KDE-Keywords[ca]": "ortografia,verificació ortogràfica,verificació de gramàtica,verificació gramatical,verificació ortogràfica,correcció automàtica,paraules,frases,paraules incorrectes,lingüística,semàntica,alfabet,correcció",
    "X-KDE-Keywords[en_GB]": "spell,spellings,grammar check,grammatical check,spell check,autocorrect,auto correct,words,phrases,wrong words,linguistics,semantic,alphabet,correction",
    "X-KDE-Keywords[es]": "deletrear,ortografía,comprobación de gramática,comprobación gramatical,comprobación ortográfica,autocorregir,autocorrección,corrección automática,palabras,frases,palabras erróneas,lingüística,semántica,alfabeto,corrección",
    "X-KDE-Keywords[eu]": "letreiatu,ortografia,gramatika aztertzea,azterketa gramatikoa,ortografia aztertzea,zuzenketa ortografikoa,zuzenketa automatikoa,automatikoki zuzendu,hitzak,esaldiak,hitz okerrak,linguistika,semantika,alfabetoa,zuzenketa",
    "X-KDE-Keywords[fi]": "oikeinkirjoitus,oikeinkirjoituksen tarkistus,oikoluku,kielioppi,tarkistus,automaattikorjaus,automaattinen korjaus,sanat,fraasit,väärät sanat,semantiikka,aakkoset,korjaus",
    "X-KDE-Keywords[fr]": "orthographique, orthographe, vérification grammaticale, vérification de grammaire, vérification orthographique, correction automatique, mots, phrases, mots erronés, linguistique, sémantique, alphabet, correction",
    "X-KDE-Keywords[gl]": "spell,ortografía,ortográfica,ortográfico,spellings,comprobación ortográfica,corrección ortográfica,revisión ortográfica,grammar check,gramática,gramatical,comprobación gramatical,corrección gramatical,revisión gramatical,grammatical check,spell check,autocorrect,corrección automática,auto correct,corrixir automaticamente,words,palabras,phrases,frases,sentencias,parágrafos,wrong words,palabras incorrectas,castelanismos,galicismos,lusismos,hipergaleguismos,hiperenxebrismos,arcaísmos,vulgarismos,dialectalismos,castrapo,linguistics,lingüística,linguaxe,idioma,semantic,semántica,dicionario,alphabet,alfabeto,correction,corrección,comprobación,revisión",
    "X-KDE-Keywords[he]": "איות,בדיקת דקדוק,בדיקה דקדוקית,בדיקת איות,תיקון אוטומטי,מילים,ביטויים,משפטים,מילים שגויות,בלשנות,סמנטיקה,אלפבית,תיקון",
    "X-KDE-Keywords[hu]": "betűzés,helyesírés,nyelvtani ellenőrzés,nyelvi ellenőrzés,helyesírás-ellenőrzés,autokorrekt,automatikus javítás,szavak,kifejezések,hibás szavak,nyelvészeti,szemantikai,ábécé,javítás",
    "X-KDE-Keywords[ia]": "orthographia,orthographiar,controlo grammatica,controlo grammatical,verifica orthographic,autocorrige,auto corriger,parolas,phrases,parolas errate,linguistica,semantica,alphabeto,correction",
    "X-KDE-Keywords[it]": "ortografia,ortografia,controllo grammaticale,controllo grammaticale,controllo ortografico,correzione automatica,parole,frasi,parole sbagliate,linguistica,semantica,alfabeto,correzione",
    "X-KDE-Keywords[ka]": "spell,spellings,grammar check,grammatical check,spell check,autocorrect,auto correct,words,phrases,wrong words,linguistics,semantic,alphabet,correction,მართლწერა,გრამატიკა,გრამატიკის შემოწმება",
    "X-KDE-Keywords[ko]": "spell,spellings,grammar check,grammatical check,spell check,autocorrect,auto correct,words,phrases,wrong words,linguistics,semantic,alphabet,correction,맞춤법,문법,맞춤법 검사,문법 검사,자동 고침,단어,구,교정",
    "X-KDE-Keywords[nl]": "spelling,spellingen,grammatica controle,controle op grammatica,spellingcontrole,automatisch corrigeren,woorden,frasen,verkeerde woorden, linguïstiek,semantiek,alfabet,correctie",
    "X-KDE-Keywords[nn]": "stavekontroll,stava,grammatikk-kontroll,staving,autokorriger,autokorrektur,ord,fraser,frasar,feil ord,galne ord,lingvistikk,språk,semantikk,alfabet,retting,korrektur,språkvask",
    "X-KDE-Keywords[pl]": "pisownia,pisownie,sprawdzanie gramatyki,sprawdzanie gramatyki,sprawdzanie pisowni,autokorekta,auto poprawianie,słowa,wyrażenia,złe słowa,lingwistyka,semantycznie,alfabet,poprawianie",
    "X-KDE-Keywords[pt_BR]": "ortografia,verificação gramatical,gramática,verificação ortográfica,correção automática,palavras,frases,palavras erradas,linguística,semântica,alfabeto,correção",
    "X-KDE-Keywords[ru]": "spell,spellings,grammar check,grammatical check,spell check,autocorrect,auto correct,words,phrases,wrong words,linguistics,semantic,alphabet,correction,орфография,проверка орфографии,проверка грамматики,орфография,грамматика,исправления,замена,автозамена,слова,фразы,ошибки,алфавит,исправления",
    "X-KDE-Keywords[sk]": "hláskovanie,hlásky,kontrola gramatiky,gramatická kontrola,kontrola pravopisu,autokorekcia,automatická oprava,slová,frázy,nesprávne slová,lingvistika,sémantika,abeceda,oprava",
    "X-KDE-Keywords[sl]": "črkuj,črkovanja,preverjanje skladnje,preverjanje slovnice,preverjanje črkovanja,samodejno popravljanje,besede,fraze,napačne besede,jezikoslovje,semantika,abeceda,popravek",
    "X-KDE-Keywords[sv]": "stavning,stavningar,grammatikkontroll,grammatisk kontroll,stavningskontroll,automatisk korrigering,auto korrigering,ord,meningar,felaktiga ord,lingvistik,semantik,alfabet,korrigering",
    "X-KDE-Keywords[ta]": "spell,spellings,grammar check,grammatical check,spell check,autocorrect,auto correct,words,phrases,wrong words,linguistics,semantic,alphabet,correction, சொல் திருத்தி, சொல்லாக்கம், எழுத்தாக்கம், இலக்கணம், திருத்து, தவறான சொல், பிழைதிருத்தம்",
    "X-KDE-Keywords[tr]": "yazım,imla,dilbilgisi,dil bilgisi,denetim,kontrol,hatalı,düzelt,otomatik düzelt,kendiliğinden düzelt,sözcükler,kelimeler,deyimler,ifadeler,yanlış,dilbilim,linguistik,anlam,alfabe,abece,düzeltme",
    "X-KDE-Keywords[uk]": "spell,spellings,grammar check,grammatical check,spell check,autocorrect,auto correct,words,phrases,wrong words,linguistics,semantic,alphabet,correction,правопис,перевірка граматики,граматика,автовиправлення,слова,фрази,орфографія,ортографія,помилки у словах,лінвістика,семантика,абетка,виправлення",
    "X-KDE-Keywords[vi]": "spell,spellings,grammar check,grammatical check,spell check,autocorrect,auto correct,words,phrases,wrong words,linguistics,semantic,alphabet,correction,đánh vần,kiểm tra ngữ pháp,kiểm tra đánh vần,sửa tự động,từ,cụm từ,từ sai,ngôn ngữ học,ngữ nghĩa,mẫu tự,sửa",
    "X-KDE-Keywords[x-test]": "xxspellxx,xxspellingsxx,xxgrammar checkxx,xxgrammatical checkxx,xxspell checkxx,xxautocorrectxx,xxauto correctxx,xxwordsxx,xxphrasesxx,xxwrong wordsxx,xxlinguisticsxx,xxsemanticxx,xxalphabetxx,xxcorrectionxx",
    "X-KDE-Keywords[zh_TW]": "拼字,拼寫,文法檢查,拼字檢查,自動修正,單字,單詞,詞彙,錯誤單詞",
    "X-KDE-System-Settings-Parent-Category": "regionalsettings",
    "X-KDE-Weight": 20
}
