{
    "KPlugin": {
        "BugReportUrl": "https://bugs.kde.org/enter_bug.cgi?product=systemsettings&component=kcm_splashscreen",
        "Description": "Choose splash screen theme",
        "Description[ar]": "يختار سمة شاشة البدء",
        "Description[az]": "Açılış ekranı mövzusunu seçin",
        "Description[be]": "Выбар тэмы застаўкі",
        "Description[bg]": "Изберете тема за начален екран",
        "Description[ca@valencia]": "Seleccioneu el tema de la pantalla de presentació",
        "Description[ca]": "Trieu el tema de la pantalla de presentació",
        "Description[cs]": "Zvolte motiv uvítací obrazovky",
        "Description[da]": "Vælg tema for opstartsbillede",
        "Description[de]": "Startbildschirm-Design auswählen",
        "Description[el]": "Επιλογή θέματος οθόνης εκκίνησης",
        "Description[en_GB]": "Choose splash screen theme",
        "Description[eo]": "Elekti salutŝildan etoson",
        "Description[es]": "Escoger un tema para la pantalla de bienvenida",
        "Description[et]": "Tiitelkuva teema valimine",
        "Description[eu]": "Aukeratu plasta pantailaren gaia",
        "Description[fi]": "Valitse tervetuloruudun teema",
        "Description[fr]": "Sélectionnez un thème pour l'écran de démarrage",
        "Description[gl]": "Escoller un tema da pantalla de benvida.",
        "Description[he]": "בחירת ערכת עיצוב של מסך פתיח",
        "Description[hu]": "Az indítóképernyő témájának kiválasztása",
        "Description[ia]": "Selige thema de schermo de Splash",
        "Description[id]": "Pilih tema layar splash",
        "Description[is]": "Velja þema fyrir upphafsskjá",
        "Description[it]": "Scegli tema della schermata iniziale",
        "Description[ja]": "スプラッシュスクリーンのテーマを選択",
        "Description[ka]": "აირჩიეთ მისასალმებელი ფანჯრის თემა",
        "Description[ko]": "시작 화면 테마 선택",
        "Description[lt]": "Pasirinkti prisistatymo lango apipavidalinimą",
        "Description[lv]": "Izvēlieties ielādēšanās ekrāna motīvu",
        "Description[nl]": "Opstartschermthema kiezen",
        "Description[nn]": "Vel tema for velkomstbilete",
        "Description[pa]": "ਸਵਾਗਤੀ ਸਕਰੀਨ ਥੀਮ ਚੁਣੋ",
        "Description[pl]": "Wybierz wygląd ekranu powitalnego",
        "Description[pt]": "Escolher o tema do ecrã inicial",
        "Description[pt_BR]": "Escolha o tema da tela de apresentação",
        "Description[ro]": "Alege tematica ecranului de întâmpinare",
        "Description[ru]": "Выбор экрана-заставки",
        "Description[sk]": "Výber témy pre úvodnú obrazovku",
        "Description[sl]": "Izberi temo pozdravnega okna",
        "Description[sv]": "Välj startskärmstema",
        "Description[ta]": "துவக்கத் திரையை தேர்ந்தெடுங்கள்",
        "Description[tr]": "Açılış ekranı temasını seçin",
        "Description[uk]": "Вибір теми вікна вітання Плазми",
        "Description[vi]": "Chọn chủ đề màn hình khởi động",
        "Description[x-test]": "xxChoose splash screen themexx",
        "Description[zh_CN]": "选择欢迎屏幕主题",
        "Description[zh_TW]": "選擇啟動畫面主題",
        "Icon": "preferences-system-splash",
        "Name": "Splash Screen",
        "Name[ar]": "شاشة البدء",
        "Name[ast]": "Pantalla de presentación",
        "Name[az]": "Açılış ekranı",
        "Name[be]": "Застаўка",
        "Name[bg]": "Начален екран",
        "Name[bs]": "Čuvar ekrana",
        "Name[ca@valencia]": "Pantalla de presentació",
        "Name[ca]": "Pantalla de presentació",
        "Name[cs]": "Úvodní obrazovka",
        "Name[da]": "Splashskærm",
        "Name[de]": "Startbildschirm",
        "Name[el]": "Οθόνη εκκίνησης",
        "Name[en_GB]": "Splash Screen",
        "Name[eo]": "Salutŝildo",
        "Name[es]": "Pantalla de bienvenida",
        "Name[et]": "Tiitelkuva",
        "Name[eu]": "Plasta pantaila",
        "Name[fi]": "Tervetuloruutu",
        "Name[fr]": "Écran de démarrage",
        "Name[gl]": "Pantalla de benvida",
        "Name[he]": "מסך פתיח",
        "Name[hu]": "Nyitóképernyő",
        "Name[ia]": "Schermo Splash",
        "Name[id]": "Layar Splash",
        "Name[is]": "Upphafsskjár",
        "Name[it]": "Schermata iniziale",
        "Name[ja]": "スプラッシュスクリーン",
        "Name[ka]": "მისასალმებელი ფანჯარა",
        "Name[ko]": "시작 화면",
        "Name[lt]": "Prisistatymo langas",
        "Name[lv]": "Ielādēšanās ekrāns",
        "Name[nb]": "Velkomstbilde",
        "Name[nds]": "Startschirm",
        "Name[nl]": "Opstartscherm",
        "Name[nn]": "Velkomst­bilete",
        "Name[pa]": "ਸਵਾਗਤੀ ਸਕਰੀਨ",
        "Name[pl]": "Ekran powitalny",
        "Name[pt]": "Ecrã Inicial",
        "Name[pt_BR]": "Tela de apresentação",
        "Name[ro]": "Ecran de întâmpinare",
        "Name[ru]": "Заставка",
        "Name[se]": "Álgošearbma",
        "Name[sk]": "Úvodná obrazovka",
        "Name[sl]": "Pozdravno okno",
        "Name[sr@ijekavian]": "Уводни екран",
        "Name[sr@ijekavianlatin]": "Uvodni ekran",
        "Name[sr@latin]": "Uvodni ekran",
        "Name[sr]": "Уводни екран",
        "Name[sv]": "Startskärm",
        "Name[ta]": "துவக்கத் திரை",
        "Name[tg]": "Экрани зоҳирӣ",
        "Name[tr]": "Açılış Ekranı",
        "Name[uk]": "Вікно вітання",
        "Name[vi]": "Màn hình khởi động",
        "Name[x-test]": "xxSplash Screenxx",
        "Name[zh_CN]": "欢迎屏幕",
        "Name[zh_TW]": "啟動畫面"
    },
    "X-DocPath": "kcontrol/splashscreen/index.html",
    "X-KDE-Keywords": "splash screen,splash theme,start-up,startup,loading,starting screen,loading screen,logo,start screen,welcome screen",
    "X-KDE-Keywords[ar]": "شاشة البداية,سمة البداية,بدء التشغيل,بدء التشغيل,التحميل,شاشة البدء,شاشة التحميل,الشعار,شاشة البدء,شاشة الترحيب",
    "X-KDE-Keywords[az]": "splash screen,splash theme,start-up,startup,loading,starting screen,loading screen,logo,start screen,welcome screen,başlatma ekranı,başlatma mövzusu,başlatma,yükləmə,işə salma ekranı,yüklənmə ekranı,işə düşmə ekranı,qarşılama ekranı",
    "X-KDE-Keywords[bg]": "начален екран, начална тема, стартиране, стартиране, зареждане, начален екран, екран за зареждане, лого, начален екран, екран за добре дошли",
    "X-KDE-Keywords[ca@valencia]": "pantalla de benvinguda,tema de benvinguda,inici,arrancada,càrrega,pantalla d'inici,pantalla de càrrega,pantalla d'inici,pantalla de benvinguda",
    "X-KDE-Keywords[ca]": "pantalla de benvinguda,tema de benvinguda,inici,arrencada,càrrega,pantalla d'inici,pantalla de càrrega,pantalla d'inici,pantalla de benvinguda",
    "X-KDE-Keywords[en_GB]": "splash screen,splash theme,start-up,startup,loading,starting screen,loading screen,logo,start screen,welcome screen",
    "X-KDE-Keywords[es]": "pantalla de bienvenida,tema de bienvenida,arranque,carga,pantalla de inicio,pantalla de carga,logo,logotipo",
    "X-KDE-Keywords[eu]": "plast pantaila,plast gaia,abioa,abiatzea,zamatzea,hasierako pantaila,zamatzeko pantaila,logoa,hasteko pantaila,ongietorri pantaila",
    "X-KDE-Keywords[fi]": "aloitusruutu,aloitusteema,käynnistys,lataus,käynnistysnäyttö,latausnäyttö,logo,tervetuloikkuna",
    "X-KDE-Keywords[fr]": "écran de démarrage, thème de démarrage, démarrage, démarrer, chargement, écran de chargement, logo, écran d'accueil",
    "X-KDE-Keywords[gl]": "splash screen,pantalla de inicio,pantalla de benvida,splash theme,tema de benvida,tema de inicio,start-up,inicio,iniciar,startup,loading,carga,cargando,starting screen,pantalla inicial,loading screen,pantalla de carga,logo,start screen,welcome screen",
    "X-KDE-Keywords[he]": "מסך פתיחה,פתיח,ערכת מסך פתיחה,ערכת פתיח,ערכת נושא מסך פתיחה,ערכת נושא פתיח,עלייה,טעינה,התחלה,פתיחה,מסך התחלה,מסך טעינה,לוגו,מסך קבלת פנים",
    "X-KDE-Keywords[hu]": "üdvözlőképernyő,üdvözlőtéma,indulás,indulás,betöltés,indítóképernyő,betöltőképernyő,logó,indítóképernyő,üdvözlőképernyő",
    "X-KDE-Keywords[ia]": "schermo de splash, thema de splash, initiar, cargar, schermo de initio, cargante schermo,logo,initia schermo, schermo de benvenite",
    "X-KDE-Keywords[it]": "schermata iniziale,tema schermata di avvio,avvio,caricamento,schermata di avvio,schermata di caricamento,logo,schermata iniziale,schermata di benvenuto",
    "X-KDE-Keywords[ka]": "splash screen,splash theme,start-up,startup,loading,starting screen,loading screen,logo,start screen,welcome screen,მისალმების ეკრანი,გაშვების ეკრანი,ლოგო",
    "X-KDE-Keywords[ko]": "splash screen,splash theme,start-up,startup,loading,starting screen,loading screen,logo,start screen,welcome screen,시작 화면,시작 화면 테마,로딩,로드,로고,환영 화면",
    "X-KDE-Keywords[nl]": "opstartscherm,opstartthema,opstarten,opstart,laden,scherm wordt gestart,scherm wordt geladen,logo,startscherm,welkomstscherm",
    "X-KDE-Keywords[nn]": "velkomstbilete,velkomstbilettema,oppstart,lasting,startskjerm,velkomstskjerm,lasteskjerm,logo,splash-bilete",
    "X-KDE-Keywords[pl]": "ekran powitalny,wystrój ekranu powitalnego,uruchamianie,uruchamianie,wczytywanie,ekran startowy,ekran wczytywania,logo,ekran startowy,ekran powitalny",
    "X-KDE-Keywords[pt_BR]": "tela de apresentação,tema de apresentação,iniciar,inicialização,carregando,tela de início,tela de carregamento,logo,logotipo,tela inicial,tela de boas vindas,bem-vindo",
    "X-KDE-Keywords[ru]": "splash screen,splash theme,start-up,startup,loading,starting screen,loading screen,logo,start screen,welcome screen,заставка,экран-заставка,тема заставки,запуск,приветствие,запуск,экран загрузки,начальный экран",
    "X-KDE-Keywords[sk]": "úvodná obrazovka,úvodná téma,spustenie,spustenie,načítanie,úvodná obrazovka,obrazovka načítavania,logo,úvodná obrazovka,uvítacia obrazovka",
    "X-KDE-Keywords[sl]": "zaslon dobrodošlice,tema dobrodošlice,zaženi,zagon,nalaganje,zagon zaslona,nalaganje zaslona,začetni zaslon,zaslon dobrodošlice",
    "X-KDE-Keywords[sv]": "startskärm,skärmtema,start,inläsning,inläsningsskärm,logotyp,välkomstskärm",
    "X-KDE-Keywords[ta]": "splash screen,splash theme,start-up,startup,loading,starting screen,loading screen,logo,start screen,welcome screen, துவக்கத் திரை, துவக்க திரை, தொடக்க திரை, தொடக்கத் திரை",
    "X-KDE-Keywords[tr]": "açılış ekranı,splash,tema,başlangıç,yükleme,yükleniyor,logo,karşılama,hoş geldiniz,hoşgeldiniz",
    "X-KDE-Keywords[uk]": "splash screen,splash theme,start-up,startup,loading,starting screen,loading screen,logo,start screen,welcome screen,вікно вітання,тема вікна вітання,запуск,завантаження,початковий екран,екран завантаження,логотип,екран запуску,екран запрошення",
    "X-KDE-Keywords[vi]": "splash screen,splash theme,start-up,startup,loading,starting screen,loading screen,logo,start screen,welcome screen,màn hình khởi động,chủ đề khởi động,khởi động,tải,màn hình tải,biểu trưng,màn hình chào mừng",
    "X-KDE-Keywords[x-test]": "xxsplash screenxx,xxsplash themexx,xxstart-upxx,xxstartupxx,xxloadingxx,xxstarting screenxx,xxloading screenxx,xxlogoxx,xxstart screenxx,xxwelcome screenxx",
    "X-KDE-Keywords[zh_TW]": "歡迎畫面,啟動畫面,啟動主題,啟動,載入中,開機畫面",
    "X-KDE-System-Settings-Parent-Category": "themes",
    "X-KDE-Weight": 100
}
